1 1 1
0 SV 0 0 
2 2 1
0 SV 1 0 
0 SV 0 0 
3 3 2
2 CR 2 0 
0 CL 0 1 
1 CU 1 1 
3 CD 1 0 
2 CR 0 0 
0 CL 2 1 
4 2 3
0 CL 0 2 
1 SO 0 1 
0 SV 1 2 
2 CR 0 0 
5 5 2
0 SV 0 0 
2 CR 3 0 
0 SV 1 0 
0 SV 4 1 
0 SV 2 0 
0 CL 3 1 
6 1 2
2 CR 0 0 
0 CL 0 1 
7 1 1
0 SV 0 0 
8 3 5
2 CR 2 0 
1 SO 2 1 
2 CR 0 0 
1 CU 1 1 
1 CU 2 2 
3 CD 1 2 
3 CD 1 0 
0 CL 0 1 
0 CL 1 4 
0 SV 2 4 
1 SO 1 3 
9 2 3
1 SO 0 1 
2 CR 0 0 
0 CL 0 2 
0 SV 1 2 
10 3 5
1 SO 2 1 
1 SO 2 2 
1 SO 0 3 
0 CL 0 1 
2 CR 2 0 
3 CD 1 0 
0 CL 0 4 
0 SV 1 4 
1 CU 2 3 
0 CL 1 3 
2 CR 1 2 
2 CR 0 0 
0 SV 2 4 
3 CD 0 2 
1 CU 1 1 
11 10 10
1 SO 9 5 
1 SO 9 4 
0 CL 1 2 
0 SV 7 2 
0 SV 5 2 
0 SV 3 2 
2 CR 9 2 
1 SO 9 3 
1 SO 9 8 
2 CR 0 0 
0 CL 9 9 
0 SV 4 2 
2 CR 1 1 
0 SV 8 2 
0 SV 6 2 
1 SO 9 7 
0 CL 0 1 
1 SO 9 6 
0 SV 2 2 
